{
  "type": "service_account",
  "project_id": "bens-event-demo",
  "private_key_id": "ce7f7dc381894721eefa3e8d2e4dc500c5b9f049",
  "private_key": "-----BEGIN PRIVATE KEY-----\nMIIEvgIBADANBgkqhkiG9w0BAQEFAASCBKgwggSkAgEAAoIBAQCkzhdcCfN8WWdx\nzlHigu7BKEXWscG7jB0Y/Avgcxz/aCe+vChubJNGSPOnZ01ToDTC2oEmvFMWPw/c\n//U4E6LeOwEc77X/iGuf5Tgu9V3K9gYX3VCjAp1iXuFYqoD2D8dNDFLqRim8lZ09\nkSeyiugni/FJRbYoQ27rvxntZxRnzvM8j91A3kFHZ5VApGyyJu81Qum7D5ckXWVB\n7G369NwBSUXQwvNilIALXP2dxMY9rIx4QCRmotiSa9lGcYIb7vY/HUdlDDvJMhFv\nwGfa2RhHDtbAm5qgegd4OZuVu86Q4GJC1e6m7V+I/nKyfNDSaQAu1HIexBR5gFsR\n5hB3noJbAgMBAAECggEBAIk+e6ORQezPQ186E2UP5qaC1E4rsAtwbpbs5zMeigqE\ngXzMktsKnkcM36QMWhAHPYj7kExizsqa76n6mgr+B0cMWivv0F+iCwaYTAaHHXm1\nEnPzQYDO36QZIY7GRykjELUwSyiAD6fV7KFl7Wo5VYYBe4mqfTzgk1HNzliu3AZp\nsiHG9ehWkMGdcy/BKh1mfc1REQYJV5n3oLIhoMctzovhXNvtEf3hPxvYhjT/lnJc\nAEBDzGVhM/1V+4H4asGCN6uM95V4xYIp0a4bihvnfwX7IPbH7OuCfNAQ25tWCAHh\n4Iypn0i5e5SDCObQHVJIwDRy+bpACN3WlExHNoop8LECgYEA1rw1Kzs9ROUgmNcG\ne0xcc6hhL+nzAFmhw5hIkyvNEE2aygKDau9exFkDJXtAGt376hsbjww8JkODPibU\n7hnfTqCxjDGcOo62vlaLr5g9DOo4AWtnHuN5x+fKAKyLndKs/dXWZQNNoC0GqzoD\nyBPqK+8Hqii6ViiQT/DUO99XVZMCgYEAxHmYO65Qv2es25nIhmgXWMxks1CuRta+\nmixA6UQ/1iA7eu6NhQfjKz+jjDlcznNT1212GnGnibVY4tV7PkJYoqJABMtx3fgn\noqIKKSbnZkiNMg60m+so0hZTmojkOWST3fA+4n3wzzMSeevZEIm+juqNPu2g/yLu\nEqFRdaZ0nRkCgYBLcHN9bKJpwdVh3Kj6SClyuITsQFSOmu6puKZGjezM/XaT4a4p\ns06nzF2+nT44MiR+ameUKcg36SAChcHopE4/YVT+2673I4wv8lfAqMtJ7j8ewIzJ\n3UC7akMdWYDzQUBlLOrVMgPjce4V2ZvafqSWKrOWpBhSjI2miAUHw7764QKBgHw/\nvUL4wL3arZkOjp5ZE3Knh4NSoXPQ+CZ9l+ssqwYZyiO62qpnS4UdMKtL12ID0uCo\nq4ibmWzfzz9b7B16TZ1D6CJgGjlaZo5V1QEjRjEL7qbaX+M+eskpL2PJ8DJPZadz\n+AC5zmDqFmQd/16TDXxJ3lsOYcMXbuE/PUmeo555AoGBALCxPjNkLV05PM5CCw0i\nGktZMKsDt2FlJHfC2oYo6ET/JlFhLGOTkNdhlrLA2pHml0frlx3TY2frunjeJQSP\nEl18fP483H+GayGfbbGnx8EfX6IRbbKN9UK3UJAZHisxi10GcEOsny27YlXF8oGm\nakJfKCMeZmizyQx+kfA0Nrq8\n-----END PRIVATE KEY-----\n",
  "client_email": "firebase-adminsdk-zqmnw@bens-event-demo.iam.gserviceaccount.com",
  "client_id": "103652591124275670393",
  "auth_uri": "https://accounts.google.com/o/oauth2/auth",
  "token_uri": "https://accounts.google.com/o/oauth2/token",
  "auth_provider_x509_cert_url": "https://www.googleapis.com/oauth2/v1/certs",
  "client_x509_cert_url": "https://www.googleapis.com/robot/v1/metadata/x509/firebase-adminsdk-zqmnw%40bens-event-demo.iam.gserviceaccount.com"
}
